<svg width="100" height="100" viewBox="0 0 100 100" fill="none" xmlns="http://www.w3.org/2000/svg">
<path d="M90.1488 52.3266C95.6704 57.5182 98.7265 64.8169 98.5548 72.401C98.3831 79.9843 94.9997 87.1368 89.2493 92.0728V82.2305C89.2493 77.9124 85.7544 74.4125 81.4442 74.4125H79.3036L73.9552 90.7725L72.7188 80.1876H71.4512L70.2172 90.75L70.2043 90.7476L64.7797 74.4125H62.1369C57.8259 74.4125 54.3317 77.9124 54.3317 82.2305V92.0728C53.7107 91.5376 53.1162 90.9766 52.5465 90.3899C47.7133 85.4113 45.0134 78.7394 45.0206 71.7951C45.0206 70.8982 45.0656 70.0093 45.1522 69.135C46.4311 56.4911 56.4026 46.4873 69.0233 45.1853C69.9428 45.0921 70.8663 45.0455 71.7905 45.0455C78.6136 45.0351 85.1823 47.6405 90.1488 52.3266ZM79.2338 63.1277V60.1469C79.2338 56.0298 75.9017 52.6922 71.7913 52.6922C67.681 52.6922 64.3489 56.0298 64.3489 60.1469V63.1277C64.3489 67.2448 67.681 70.5823 71.7913 70.5823C75.9017 70.5823 79.2338 67.2448 79.2338 63.1277ZM73.6102 79.3438L75.097 74.9743L68.8941 74.951L70.3832 79.3438H73.6102Z" fill="#737EE5"/>
<path d="M90.1487 39.4046V52.3265C85.1822 47.6405 78.6135 45.035 71.7905 45.0455C70.8662 45.0455 69.9427 45.0921 69.0232 45.1853V45.1797C68.6188 32.5495 58.2045 22.5617 45.5894 22.7047C32.9743 22.8486 22.7895 33.0694 22.6707 45.7053C22.5512 58.3419 32.5419 68.7532 45.1522 69.1349C45.0655 70.0093 45.0206 70.8981 45.0206 71.795C45.0134 78.7394 47.7132 85.4113 52.5465 90.3899L52.524 90.4124H39.3417L38.4109 80.7469C34.1883 79.8098 30.1694 78.1133 26.5516 75.7393L19.11 81.9114L9.92405 72.7112L16.0884 65.2573C13.6974 61.6449 12.0013 57.6162 11.0866 53.3801L1.43695 52.4479V39.4046L11.0866 38.4724C12.0222 34.2428 13.7167 30.2181 16.0884 26.5952L9.92405 19.1414L19.11 9.94115L26.5516 16.1132C30.1589 13.7191 34.181 12.021 38.4109 11.1056L39.3417 1.44012H52.3619L53.2918 11.1056C57.5153 12.0427 61.5334 13.7392 65.152 16.1132L72.5936 9.94115L81.6616 19.1414L75.4997 26.5952C77.889 30.2084 79.5852 34.2363 80.499 38.4724L90.1487 39.4046Z" fill="#E33F5A"/>
<path d="M89.2493 82.2304V92.0727C79.2032 100.7 64.3769 100.7 54.3317 92.0727V82.2304C54.3317 77.9124 57.8258 74.4125 62.1368 74.4125H64.7797L70.2043 90.7475L70.2171 90.7499L69.6667 95.4545L72.1146 97.0698L74.5032 95.4545L73.9552 90.7724L79.3035 74.4125H81.4442C85.7543 74.4125 89.2493 77.9124 89.2493 82.2304Z" fill="#FBC64A"/>
<path d="M79.2337 60.1469V63.1277C79.2337 67.2448 75.9016 70.5824 71.7913 70.5824C67.6809 70.5824 64.3488 67.2448 64.3488 63.1277V60.1469C64.3488 56.0298 67.6809 52.6923 71.7913 52.6923C75.9016 52.6923 79.2337 56.0298 79.2337 60.1469Z" fill="#FBC64A"/>
<path d="M75.097 74.9743L73.6102 79.3437H70.3832L68.8941 74.951L75.097 74.9743Z" fill="#E33F5A"/>
<path d="M73.9552 90.7725L74.5032 95.4545L72.1146 97.0699L69.6667 95.4545L70.2171 90.75L71.4511 80.1876H72.7188L73.9552 90.7725Z" fill="#E33F5A"/>
<path d="M91.5865 51.715V39.4047C91.5865 38.6629 91.0241 38.0425 90.2867 37.9709L81.6656 37.1384C80.7542 33.452 79.2739 29.9312 77.2785 26.7021L82.7689 20.0608C83.2398 19.491 83.2037 18.6568 82.6846 18.1304L73.6166 8.93018C73.0927 8.39816 72.2502 8.35637 71.6766 8.83213L65.0349 14.3404C61.8079 12.3513 58.2968 10.8662 54.6238 9.93715L53.7925 1.30192C53.7211 0.56336 53.1017 0 52.3612 0H39.3417C38.6011 0 37.9817 0.56336 37.9103 1.30192L37.0799 9.93635C33.3988 10.8493 29.8822 12.332 26.6576 14.3315L20.0271 8.83213C19.4558 8.35798 18.6182 8.39736 18.0935 8.92295L8.90752 18.1231C8.38279 18.6487 8.34348 19.4878 8.81686 20.06L14.3177 26.7118C12.3311 29.9425 10.8476 33.4592 9.92087 37.1384L1.29978 37.9709C0.562437 38.0425 0 38.6629 0 39.4047V52.4479C0 53.1897 0.562437 53.8101 1.29978 53.8816L9.92087 54.7142C10.8315 58.4006 12.3126 61.9222 14.3096 65.1504L8.81766 71.7926C8.34428 72.3648 8.3836 73.2038 8.90752 73.7294L18.0935 82.9296C18.6182 83.4552 19.4558 83.4946 20.0271 83.0204L26.668 77.5122C29.895 79.5013 33.406 80.9864 37.0791 81.9154L37.9103 90.5507C37.9817 91.2892 38.6011 91.8526 39.3417 91.8526H51.9712C52.4302 92.305 52.9068 92.7438 53.3954 93.1649C61.7469 100.361 73.5155 102.028 83.5327 97.4355C93.549 92.8427 99.9797 82.8292 99.9998 71.795C100.029 64.2359 96.9926 56.9894 91.5865 51.715ZM39.8423 80.6087C39.7822 79.985 39.3264 79.4715 38.7151 79.3389C34.6617 78.4364 30.8048 76.8066 27.3307 74.5291C26.8036 74.1883 26.1176 74.2293 25.6346 74.6303L19.2007 79.9658L11.8665 72.6196L17.1956 66.1759C17.6008 65.6857 17.6369 64.9873 17.2847 64.4577C14.9948 60.9948 13.3701 57.1348 12.4924 53.0756C12.36 52.4632 11.8473 52.0067 11.2247 51.9464L2.87557 51.1396V40.713L11.2247 39.9061C11.8473 39.8467 12.36 39.3902 12.4924 38.777C13.3934 34.7178 15.0205 30.8554 17.2967 27.3772C17.6369 26.8492 17.596 26.1613 17.1956 25.6767L11.8673 19.2322L19.2015 11.886L25.6346 17.2223C26.124 17.6281 26.8204 17.6643 27.3492 17.3107C30.8072 15.0186 34.6617 13.3921 38.7151 12.5129C39.3264 12.3803 39.7822 11.8675 39.8423 11.2431L40.6479 2.88029H51.0558L51.8613 11.2431C51.9215 11.8675 52.3772 12.3803 52.9886 12.5129C57.042 13.4154 60.8988 15.0452 64.3729 17.3227C64.8993 17.6635 65.5861 17.6225 66.0691 17.2223L72.4958 11.8916L79.7256 19.2258L74.3925 25.6767C73.9873 26.1661 73.9512 26.8645 74.3034 27.3933C76.5917 30.857 78.2164 34.717 79.0942 38.7762C79.2265 39.3886 79.7384 39.8451 80.361 39.9053L88.7109 40.7122V49.2389C83.8303 45.5719 77.8915 43.5949 71.7905 43.6053C71.3163 43.6053 70.8413 43.6174 70.3672 43.6407C69.1629 30.6617 58.0834 20.8628 45.0768 21.2727C32.0693 21.6825 21.6269 32.1605 21.2402 45.1893C20.8535 58.2181 30.6548 69.2989 43.6149 70.4827C43.5941 70.9215 43.5828 71.3595 43.5828 71.7942C43.5716 78.0105 45.6264 84.0539 49.4238 88.9715H40.6479L39.8423 80.6087ZM43.8933 67.6168C32.444 66.5785 23.7796 56.7925 24.1198 45.2826C24.46 33.7719 33.686 24.5162 45.1771 24.1578C56.6681 23.7993 66.4518 32.4627 67.506 43.9292C55.3442 45.7865 45.7066 55.4552 43.8933 67.6168ZM87.8115 91.4001C84.1176 94.4114 79.6526 96.3201 74.926 96.9075L75.3079 96.6496C75.7532 96.3482 75.9939 95.8234 75.9314 95.2882L75.4203 90.9187L80.3458 75.8527H81.4442C84.9592 75.8567 87.8075 78.7097 87.8115 82.2305V91.4001ZM71.6445 90.9179L72.085 87.1544L72.9731 94.753L72.105 95.3404L71.1976 94.7417L71.6445 90.9179ZM72.5808 77.9044H71.4134L70.9031 76.4L73.0903 76.408L72.5808 77.9044ZM68.8756 96.6576L69.3739 96.9871C64.3874 96.5105 59.6536 94.5665 55.7695 91.3993V82.2305C55.7735 78.7097 58.6218 75.8567 62.1368 75.8527H63.7431L68.7489 90.926L68.2386 95.2882C68.1752 95.8282 68.4223 96.3578 68.8756 96.6576ZM90.6871 88.6492V82.2305C90.6807 77.1192 86.5462 72.978 81.4442 72.9724H79.3036C78.6818 72.9724 78.1306 73.3726 77.9372 73.9641L74.6236 84.0997L74.22 80.6465C74.573 80.4809 74.8442 80.1787 74.971 79.8091L76.4577 75.4396C76.6077 75.0008 76.5371 74.5162 76.2683 74.1385C75.9996 73.7616 75.5655 73.5365 75.1025 73.5349L68.8997 73.5116H68.8941C68.4303 73.5116 67.9955 73.7359 67.7259 74.1136C67.4555 74.4905 67.3841 74.9759 67.5325 75.4155L69.0217 79.8074C69.1685 80.239 69.5095 80.5757 69.9419 80.7156L69.5376 84.1769L66.1437 73.9577C65.9487 73.3694 65.3983 72.9724 64.7797 72.9724H62.136C57.034 72.978 52.8987 77.1192 52.8931 82.2305V88.6492C48.7394 84.0226 46.4464 78.0177 46.4576 71.7958C46.4576 70.9633 46.4993 70.1162 46.582 69.278C47.759 57.3711 57.2586 47.8414 69.1693 46.619C70.0398 46.5306 70.9144 46.4864 71.7897 46.4864C78.2469 46.4752 84.4634 48.9408 89.1635 53.3761C99.1533 62.7668 99.8297 78.4292 90.6871 88.6492Z" fill="black"/>
<path d="M71.7904 51.2505C66.8882 51.2569 62.9158 55.2366 62.911 60.1469V63.1277C62.9343 68.0235 66.9034 71.9799 71.7913 71.9799C76.6791 71.9799 80.6482 68.0235 80.6715 63.1277V60.1469C80.6731 55.2326 76.6959 51.2489 71.7904 51.2505ZM77.7959 63.1277C77.7767 66.4355 75.0937 69.1076 71.7913 69.1076C68.4888 69.1076 65.8058 66.4355 65.7866 63.1277V60.1469C65.7866 56.8246 68.4752 54.1324 71.7913 54.1324C75.1081 54.1324 77.7959 56.8246 77.7959 60.1469V63.1277Z" fill="black"/>
</svg>
